<svg xmlns="http://www.w3.org/2000/svg" xmlns:xlink="http://www.w3.org/1999/xlink" width="1000" height="1000" viewBox="0 0 1000 1000">
  <defs>
    <clipPath id="clip-Logo">
      <rect width="1000" height="1000"/>
    </clipPath>
  </defs>
  <g id="Logo" clip-path="url(#clip-Logo)">
    <rect width="1000" height="1000" fill="#fff"/>
    <text id="_y" data-name="   y" transform="translate(701 433) rotate(180)" fill="#ffcf81" font-size="388" font-family="Rubik-Regular, Rubik"><tspan x="-244.44" y="0" xml:space="preserve">   y</tspan></text>
    <text id="y" transform="translate(391 560)" fill="#009dfd" font-size="391" font-family="Rubik-Regular, Rubik"><tspan x="-107.329" y="0">y</tspan></text>
  </g>
</svg>
